<?xml version="1.0" encoding="utf-8"?>
<!-- Generator: Adobe Illustrator 18.0.0, SVG Export Plug-In . SVG Version: 6.00 Build 0)  -->
<!DOCTYPE svg PUBLIC "-//W3C//DTD SVG 1.1//EN" "http://www.w3.org/Graphics/SVG/1.1/DTD/svg11.dtd">
<svg version="1.1" id="Capa_1" xmlns="http://www.w3.org/2000/svg" xmlns:xlink="http://www.w3.org/1999/xlink" x="0px" y="0px"
	 width="960px" height="560px" viewBox="0 0 960 560" enable-background="new 0 0 960 560" xml:space="preserve">
<path d="M671.4,84.6c-51.5-51.5-120.1-80-193-80c-72.9,0-141.5,28.4-193,80c-51.6,51.6-80,120.1-80,193c0,72.9,28.4,141.5,80,193
	c51.6,51.6,120.1,80,193,80s141.5-28.4,193-80c51.6-51.6,80-120.1,80-193C751.3,204.7,722.9,136.2,671.4,84.6z M717.9,252.8
	l-27.1-32.5l8.9-37.7C709.2,204.9,715.4,228.7,717.9,252.8z M353.6,451.8l30.1,47.1c-29.8-12.8-56.6-31.4-79.1-54.9L353.6,451.8z
	 M580.4,272.4l87.5-29.2l49.9,59.8c-3.9,36.9-16.4,72.6-36.4,103.8L601,419.6l-43.1-57L580.4,272.4z M382.8,437.8l41.6-55.5h108
	l42.4,56l-42.1,73.9c-33.1,7.7-67.9,8.3-101.3,1.6L382.8,437.8z M288.8,243.2l87.5,29.2l22.6,90.3l-42.7,57l-80.8-12.8
	c-20-31.2-32.5-67-36.4-103.9L288.8,243.2z M429,350.1L408,266l70.5-56.4l70.5,56.4l-21,84.1H429z M376.3,59.6l86,34.1v87.6
	l-75.7,60.6L297.1,212l-16.8-71.3C304.7,105.7,337.7,77.7,376.3,59.6z M570.2,241.8l-75.7-60.6V93.6l85.6-34.2
	c38.8,18.2,72,46.2,96.4,81.4L659.7,212L570.2,241.8z M422.7,43.3c18.2-4.4,36.9-6.6,55.7-6.6c18.7,0,37.2,2.2,55.3,6.5l-55.3,22.1
	L422.7,43.3z M266,220.3l-27.1,32.5c2.5-24.1,8.7-47.9,18.2-70.2L266,220.3z M652.2,444.1c-21,21.9-45.9,39.7-73.5,52.4l25.6-44.8
	L652.2,444.1z"/>
</svg>
